<?xml version="1.0" encoding="iso-8859-1"?>
<!-- Generator: Adobe Illustrator 19.0.0, SVG Export Plug-In . SVG Version: 6.00 Build 0)  -->
<svg xmlns="http://www.w3.org/2000/svg" xmlns:xlink="http://www.w3.org/1999/xlink" version="1.1" id="Layer_1" x="0px" y="0px" viewBox="0 0 505.499 505.499" style="enable-background:new 0 0 505.499 505.499;" xml:space="preserve" width="22px" height="24px">
<g>
	<g>
		<g>
			<path d="M471.497,234.466l-92.082-53.135l-75.733,73.207l69.215,66.907l98.599-56.91c5.432-3.133,8.678-8.756,8.678-15.03     C480.175,243.23,476.929,237.607,471.497,234.466z" fill="#c1c1c1"/>
			<polygon points="363.785,172.301 262.453,113.803 40.375,0 291.203,242.471    " fill="#c1c1c1"/>
			<polygon points="44.063,505.499 262.834,384.988 357.268,330.473 291.203,266.604    " fill="#c1c1c1"/>
			<polygon points="25.559,9.815 25.324,499.486 278.721,254.533    " fill="#c1c1c1"/>
		</g>
	</g>
</g>
<g>
</g>
<g>
</g>
<g>
</g>
<g>
</g>
<g>
</g>
<g>
</g>
<g>
</g>
<g>
</g>
<g>
</g>
<g>
</g>
<g>
</g>
<g>
</g>
<g>
</g>
<g>
</g>
<g>
</g>
</svg>
