<?xml version="1.0" encoding="utf-8"?>
<!-- Generator: Adobe Illustrator 17.0.0, SVG Export Plug-In . SVG Version: 6.00 Build 0)  -->
<!DOCTYPE svg PUBLIC "-//W3C//DTD SVG 1.1//EN" "http://www.w3.org/Graphics/SVG/1.1/DTD/svg11.dtd">
<svg version="1.1" id="Layer_1" xmlns="http://www.w3.org/2000/svg" xmlns:xlink="http://www.w3.org/1999/xlink" x="0px" y="0px"
	 width="30px" height="25px" viewBox="40.01 7.955 319.992 304.076" enable-background="new 40.01 7.955 319.992 304.076"
	 xml:space="preserve">
<path style="fill: #fff;" d="M199.85,47.181c4.294-4.681,8.338-9.056,12.406-13.431c19.375-20.862,43.75-27.794,71.344-25.125
	c37.65,3.625,59.525,26.5,70.738,60.637c9.706,29.594,6.387,58.9-5.756,87.331C337.45,182.65,320.8,205,301.781,225.706
	c-30.137,32.813-64.831,60.287-101.156,85.85c-0.347,0.183-0.706,0.341-1.075,0.475c-9.244-6.819-18.75-13.656-28.088-20.756
	c-29.525-22.5-57.5-46.662-81.675-74.956c-17.875-20.938-33.375-43.444-42.244-69.8c-11.212-33.325-10.669-66.181,6.788-97.425
	c11.25-20.144,28.019-34.463,51.094-38.9c32.362-6.25,61.481,0.037,84.337,25.819C193.031,39.7,196.369,43.331,199.85,47.181z"/>
</svg>
