<?xml version="1.0" encoding="utf-8"?>
<!-- Generator: Adobe Illustrator 17.0.0, SVG Export Plug-In . SVG Version: 6.00 Build 0)  -->
<!DOCTYPE svg PUBLIC "-//W3C//DTD SVG 1.1//EN" "http://www.w3.org/Graphics/SVG/1.1/DTD/svg11.dtd">
<svg version="1.1" id="Layer_1" xmlns="http://www.w3.org/2000/svg" xmlns:xlink="http://www.w3.org/1999/xlink" x="0px" y="0px"
	 width="34px" height="34px" viewBox="0 0 34 34" enable-background="new 0 0 34 34" xml:space="preserve">
<path fill-rule="evenodd" clip-rule="evenodd" d="M12,30v-2h22v2H12z M12,16h22v2H12V16z M12,4h22v2H12V4z M0,24h10v10H0V24z
	 M2,31.999h6v-6H2V31.999z M0,12h10v10H0V12z M2,19.999h6v-6H2V19.999z M0,0h10v10H0V0z M2,7.999h6v-6H2V7.999z"/>
</svg>
