<?xml version="1.0" encoding="utf-8"?>
<!-- Generator: Adobe Illustrator 17.0.0, SVG Export Plug-In . SVG Version: 6.00 Build 0)  -->
<!DOCTYPE svg PUBLIC "-//W3C//DTD SVG 1.1//EN" "http://www.w3.org/Graphics/SVG/1.1/DTD/svg11.dtd">
<svg version="1.1" id="Layer_1" xmlns="http://www.w3.org/2000/svg" xmlns:xlink="http://www.w3.org/1999/xlink" x="0px" y="0px"
	 width="6.007px" height="10.797px" viewBox="0 0 6.007 10.797" enable-background="new 0 0 6.007 10.797" xml:space="preserve">
<path fill-rule="evenodd" clip-rule="evenodd" d="M5.269,0.132L0.123,5.056C0.033,5.15-0.005,5.275,0.001,5.398
	c-0.006,0.124,0.032,0.248,0.122,0.342l5.146,4.924c0.168,0.176,0.443,0.176,0.611,0c0.169-0.177,0.169-0.462,0-0.639L1.044,5.398
	L5.88,0.771c0.169-0.176,0.169-0.463,0-0.639C5.711-0.044,5.437-0.044,5.269,0.132z"/>
</svg>
