<?xml version="1.0" encoding="utf-8"?>
<!-- Generator: Adobe Illustrator 17.0.0, SVG Export Plug-In . SVG Version: 6.00 Build 0)  -->
<!DOCTYPE svg PUBLIC "-//W3C//DTD SVG 1.1//EN" "http://www.w3.org/Graphics/SVG/1.1/DTD/svg11.dtd">
<svg version="1.1" id="Layer_1" xmlns="http://www.w3.org/2000/svg" xmlns:xlink="http://www.w3.org/1999/xlink" x="0px" y="0px"
	 width="18px" height="18px" viewBox="0 0 18 18" enable-background="new 0 0 18 18" xml:space="preserve">
<path fill-rule="evenodd" clip-rule="evenodd" d="M14,11c-2.209,0-4-1.791-4-4c0-2.209,1.791-4,4-4c2.209,0,4,1.791,4,4
	C18,9.209,16.209,11,14,11z M14,5c-1.105,0-2,0.895-2,2c0,1.105,0.895,2,2,2s2-0.895,2-2C16,5.895,15.104,5,14,5z M6,18
	c-2.209,0-4-1.791-4-4c0-2.209,1.791-4,4-4s4,1.791,4,4C10,16.209,8.209,18,6,18z M6,12c-1.105,0-2,0.895-2,2s0.895,2,2,2
	s2-0.895,2-2S7.105,12,6,12z M4,8C1.791,8,0,6.209,0,4c0-2.209,1.791-4,4-4s4,1.791,4,4C8,6.209,6.209,8,4,8z M4,2
	C2.895,2,2,2.895,2,4c0,1.105,0.895,2,2,2c1.104,0,2-0.895,2-2C6,2.895,5.104,2,4,2z"/>
</svg>
