<?xml version="1.0" encoding="utf-8"?>
<!-- Generator: Adobe Illustrator 17.0.0, SVG Export Plug-In . SVG Version: 6.00 Build 0)  -->
<!DOCTYPE svg PUBLIC "-//W3C//DTD SVG 1.1//EN" "http://www.w3.org/Graphics/SVG/1.1/DTD/svg11.dtd">
<svg version="1.1" id="Isolation_Mode" xmlns="http://www.w3.org/2000/svg" xmlns:xlink="http://www.w3.org/1999/xlink" x="0px"
	 y="0px" width="103.429px" height="63.676px" viewBox="0 0 103.429 63.676" enable-background="new 0 0 103.429 63.676"
	 xml:space="preserve">
<g>
	<path d="M60.875,29.928H31.268l0.035,8.481h19.963c-2.361,10.326-9.648,16.656-19.428,16.656C19.01,55.065,8.61,44.666,8.61,31.838
		S19.01,8.61,31.838,8.61c6.1,0,11.647,2.354,15.791,6.2l6.551-5.647C48.432,3.499,40.545,0,31.838,0C14.254,0,0,14.254,0,31.838
		s14.254,31.838,31.838,31.838c16.886,0,29.087-12.879,29.087-30.462L60.875,29.928z"/>
	<g>
		<rect x="71.187" y="30.279" width="32.242" height="7.797"/>
		<rect x="83.41" y="18.056" width="7.797" height="32.242"/>
	</g>
</g>
</svg>
