<?xml version="1.0" encoding="utf-8"?>
<!-- Generator: Adobe Illustrator 17.0.0, SVG Export Plug-In . SVG Version: 6.00 Build 0)  -->
<!DOCTYPE svg PUBLIC "-//W3C//DTD SVG 1.1//EN" "http://www.w3.org/Graphics/SVG/1.1/DTD/svg11.dtd">
<svg version="1.1" id="Layer_1" xmlns="http://www.w3.org/2000/svg" xmlns:xlink="http://www.w3.org/1999/xlink" x="0px" y="0px"
	 width="235px" height="250px" viewBox="82.5 75 235 250" enable-background="new 82.5 75 235 250" xml:space="preserve">
<g id="XMLID_2_">
	<path id="XMLID_8_" d="M90.833,75c-5,1.667-8.333,7.083-8.333,14.583V200v110.417c0,7.5,2.917,12.917,7.917,14.583l113.75-125
		L90.833,75z M110.417,81.25L211.25,192.5L245,155.417L110.417,81.25z M255,160.417L218.75,200L255,239.583l49.583-27.083
		c9.167-5,12.917-7.5,12.917-12.5c0-5-3.75-7.5-12.917-12.5L255,160.417z M211.667,207.917l-101.25,111.25L245.833,245
		L211.667,207.917z"/>
</g>
</svg>
