<?xml version="1.0" encoding="utf-8"?>
<!-- Generator: Adobe Illustrator 17.0.0, SVG Export Plug-In . SVG Version: 6.00 Build 0)  -->
<!DOCTYPE svg PUBLIC "-//W3C//DTD SVG 1.1//EN" "http://www.w3.org/Graphics/SVG/1.1/DTD/svg11.dtd">
<svg version="1.1" id="Layer_1" xmlns="http://www.w3.org/2000/svg" xmlns:xlink="http://www.w3.org/1999/xlink" x="0px" y="0px"
	 width="319.992px" height="304.076px" viewBox="0 0 319.992 304.076" enable-background="new 0 0 319.992 304.076"
	 xml:space="preserve">
<g>
	<path d="M87.572,25c17.779,0,31.593,6.241,43.474,19.643c2.33,2.628,4.708,5.245,7.008,7.776c1.068,1.175,2.148,2.363,3.242,3.573
		l18.41,20.362l18.556-20.229c4.036-4.4,8.057-8.752,12.302-13.318c11.204-12.064,24.563-17.683,42.039-17.683
		c2.748,0,5.635,0.144,8.591,0.43c25.051,2.412,40.281,15.844,49.379,43.543c7.244,22.089,5.612,44.894-4.991,69.718
		c-8.748,20.478-22.165,40.186-42.224,62.024c-22.268,24.245-48.386,46.981-83.436,72.515c-4.46-3.275-8.955-6.602-13.318-9.919
		c-33.031-25.172-57.759-47.832-77.814-71.304c-18.98-22.232-30.916-41.787-37.563-61.54c-9.673-28.752-8.065-54.023,4.92-77.263
		c8.422-15.08,19.54-23.761,34.008-26.543C76.289,25.601,82.147,25,87.569,25H87.572L87.572,25 M87.568,0
		c-7.179,0-14.579,0.776-22.152,2.239c-23.075,4.437-39.844,18.756-51.094,38.9c-17.457,31.244-18,64.1-6.788,97.425
		c8.869,26.356,24.369,48.862,42.244,69.8c24.175,28.294,52.15,52.456,81.675,74.956c9.338,7.1,18.844,13.937,28.088,20.756
		c0.369-0.134,0.728-0.292,1.075-0.475c36.325-25.563,71.019-53.037,101.156-85.85c19.019-20.706,35.669-43.056,46.801-69.113
		c12.143-28.431,15.462-57.737,5.756-87.331C303.115,27.17,281.24,4.295,243.59,0.67c-3.724-0.36-7.385-0.545-10.987-0.545
		c-23.091,0-43.597,7.624-60.357,25.67c-4.068,4.375-8.112,8.75-12.406,13.431c-3.481-3.85-6.819-7.481-10.088-11.168
		C132.245,8.309,111.067-0.001,87.568,0L87.568,0z"/>
</g>
</svg>
