<?xml version="1.0" encoding="utf-8"?>
<!-- Generator: Adobe Illustrator 17.0.0, SVG Export Plug-In . SVG Version: 6.00 Build 0)  -->
<!DOCTYPE svg PUBLIC "-//W3C//DTD SVG 1.1//EN" "http://www.w3.org/Graphics/SVG/1.1/DTD/svg11.dtd">
<svg version="1.1" id="Layer_1" xmlns="http://www.w3.org/2000/svg" xmlns:xlink="http://www.w3.org/1999/xlink" x="0px" y="0px"
	 width="22.013px" height="18.583px" viewBox="0 0 22.013 18.583" enable-background="new 0 0 22.013 18.583" xml:space="preserve">
<path d="M21.297,5.005c-0.43-0.272-0.928-0.254-1.493,0.053c-0.566,0.308-1.035,0.817-1.407,1.526
	c-0.373,0.709-0.541,1.411-0.505,2.106c0.035,0.695,0.269,1.178,0.698,1.45c0.43,0.272,0.931,0.255,1.504-0.054
	c0.573-0.307,1.045-0.816,1.418-1.525c0.372-0.709,0.537-1.411,0.494-2.105C21.963,5.761,21.727,5.278,21.297,5.005z M14.444,18.486
	c0.644-0.05,1.128-0.132,1.45-0.247c0.322-0.114,0.662-0.272,1.02-0.472c0.358-0.201,0.609-0.462,0.752-0.784
	c0.143-0.322,0.215-0.705,0.215-1.15c0-0.601-0.115-1.274-0.344-2.019c-0.229-0.745-0.559-1.479-0.988-2.202
	c-0.43-0.723-0.92-1.389-1.472-1.998c-0.551-0.609-1.185-1.099-1.901-1.472c-0.716-0.372-1.439-0.559-2.17-0.559
	S9.553,7.77,8.837,8.142C8.12,8.515,7.486,9.005,6.935,9.614c-0.552,0.609-1.042,1.275-1.472,1.998
	c-0.43,0.723-0.759,1.457-0.988,2.202c-0.229,0.745-0.344,1.418-0.344,2.019c0,0.444,0.071,0.828,0.215,1.15
	c0.143,0.322,0.394,0.584,0.752,0.784c0.358,0.201,0.698,0.358,1.021,0.472c0.322,0.115,0.806,0.198,1.45,0.247
	c0.644,0.051,1.171,0.079,1.579,0.086c0.408,0.007,1.027,0.011,1.858,0.011c0.83,0,1.45-0.004,1.858-0.011
	C13.273,18.565,13.799,18.537,14.444,18.486z M16.367,3.652c0.207-0.844,0.2-1.619-0.022-2.32c-0.222-0.702-0.598-1.128-1.128-1.278
	c-0.53-0.15-1.056,0.018-1.579,0.505c-0.523,0.488-0.892,1.154-1.106,1.998c-0.215,0.846-0.212,1.619,0.011,2.32
	c0.222,0.702,0.598,1.128,1.128,1.279c0.53,0.15,1.06-0.018,1.59-0.505C15.79,5.163,16.159,4.497,16.367,3.652z M9.481,2.556
	c-0.215-0.844-0.584-1.51-1.106-1.998C7.852,0.071,7.325-0.097,6.796,0.053C6.266,0.203,5.89,0.63,5.668,1.331
	c-0.222,0.702-0.226,1.476-0.011,2.32C5.872,4.497,6.24,5.163,6.763,5.649c0.523,0.488,1.049,0.656,1.579,0.505
	c0.53-0.151,0.906-0.577,1.128-1.279C9.692,4.175,9.696,3.401,9.481,2.556z M3.423,10.14c0.43-0.272,0.662-0.755,0.698-1.45
	c0.036-0.695-0.132-1.397-0.505-2.106C3.243,5.875,2.774,5.367,2.209,5.059C1.643,4.751,1.145,4.733,0.716,5.005
	c-0.43,0.272-0.666,0.756-0.709,1.45C-0.036,7.15,0.128,7.852,0.501,8.561c0.372,0.709,0.845,1.218,1.418,1.525
	C2.491,10.394,2.993,10.412,3.423,10.14z"/>
</svg>
