<?xml version="1.0" encoding="utf-8"?>
<!-- Generator: Adobe Illustrator 17.0.0, SVG Export Plug-In . SVG Version: 6.00 Build 0)  -->
<!DOCTYPE svg PUBLIC "-//W3C//DTD SVG 1.1//EN" "http://www.w3.org/Graphics/SVG/1.1/DTD/svg11.dtd">
<svg version="1.1" id="Layer_1" xmlns="http://www.w3.org/2000/svg" xmlns:xlink="http://www.w3.org/1999/xlink" x="0px" y="0px"
	 width="12px" height="12px" viewBox="0 0 12 12" enable-background="new 0 0 12 12" xml:space="preserve">
<path d="M12,10.875c0-0.984-0.131-1.947-0.393-2.889c-0.262-0.941-0.625-1.809-1.09-2.601c-0.465-0.793-1.033-1.525-1.705-2.197
	c-0.672-0.672-1.404-1.24-2.197-1.705c-0.793-0.465-1.66-0.828-2.602-1.09C3.072,0.131,2.109,0,1.125,0
	C0.813,0,0.547,0.11,0.328,0.328C0.109,0.547,0,0.813,0,1.125c0,0.313,0.109,0.578,0.328,0.797C0.547,2.141,0.813,2.25,1.125,2.25
	c1.172,0,2.289,0.229,3.352,0.686c1.062,0.457,1.978,1.07,2.748,1.84c0.769,0.77,1.383,1.686,1.84,2.748
	c0.457,1.063,0.686,2.18,0.686,3.352c0,0.313,0.109,0.578,0.328,0.797C10.297,11.891,10.563,12,10.875,12
	c0.312,0,0.578-0.109,0.797-0.328C11.891,11.453,12,11.188,12,10.875L12,10.875z M0.328,4.828C0.109,5.047,0,5.313,0,5.625
	c0,0.313,0.109,0.579,0.328,0.797C0.547,6.641,0.813,6.75,1.125,6.75c1.18,0,2.162,0.392,2.947,1.178
	C4.857,8.713,5.25,9.695,5.25,10.875c0,0.313,0.109,0.578,0.328,0.797C5.797,11.891,6.063,12,6.375,12
	c0.312,0,0.578-0.109,0.797-0.328C7.391,11.453,7.5,11.188,7.5,10.875c0-0.867-0.168-1.693-0.504-2.479
	C6.66,7.611,6.207,6.934,5.637,6.363c-0.57-0.57-1.248-1.023-2.033-1.359C2.818,4.668,1.992,4.5,1.125,4.5
	C0.813,4.5,0.547,4.609,0.328,4.828z M0,10.5c0,0.414,0.147,0.768,0.44,1.061C0.732,11.854,1.086,12,1.5,12
	c0.414,0,0.768-0.147,1.061-0.439C2.854,11.268,3,10.914,3,10.5c0-0.414-0.146-0.767-0.439-1.06C2.268,9.146,1.914,9,1.5,9
	C1.086,9,0.732,9.146,0.44,9.44C0.147,9.733,0,10.086,0,10.5z"/>
</svg>
