<?xml version="1.0" encoding="utf-8"?>
<!-- Generator: Adobe Illustrator 17.0.0, SVG Export Plug-In . SVG Version: 6.00 Build 0)  -->
<!DOCTYPE svg PUBLIC "-//W3C//DTD SVG 1.1//EN" "http://www.w3.org/Graphics/SVG/1.1/DTD/svg11.dtd">
<svg version="1.1" id="Layer_1" xmlns="http://www.w3.org/2000/svg" xmlns:xlink="http://www.w3.org/1999/xlink" x="0px" y="0px"
	 width="20px" height="21.996px" viewBox="0 0 20 21.996" enable-background="new 0 0 20 21.996" xml:space="preserve">
<path fill-rule="evenodd" clip-rule="evenodd" d="M20,12.053c0,5.492-4.477,9.944-10,9.944c-5.523,0-10-4.452-10-9.944h2
	c0,4.393,3.582,7.955,8,7.955c2.209,0,4.209-0.89,5.657-2.33C17.104,16.238,18,14.249,18,12.053c0-3.908-2.837-7.151-6.573-7.821
	l0.28,0.279c0.391,0.388,0.391,1.018,0,1.406c-0.391,0.388-1.024,0.388-1.414,0L8.172,3.807c-0.391-0.388-0.391-1.018,0-1.406
	l2.121-2.109c0.39-0.388,1.023-0.388,1.414,0s0.391,1.018,0,1.406l-0.495,0.492C16.162,2.785,20,6.97,20,12.053z"/>
</svg>
